module device-reader-go

go 1.18

require (
	github.com/gofiber/fiber/v2 v2.44.0
	github.com/pkg/errors v0.9.1
	go.mongodb.org/mongo-driver v1.11.5
)

require (
	github.com/KyleBanks/depth v1.2.1 // indirect
	github.com/PuerkitoBio/purell v1.2.0 // indirect
	github.com/PuerkitoBio/urlesc v0.0.0-20170810143723-de5bf2ad4578 // indirect
	github.com/cespare/xxhash/v2 v2.1.2 // indirect
	github.com/cpuguy83/go-md2man/v2 v2.0.2 // indirect
	github.com/dgryski/go-rendezvous v0.0.0-20200823014737-9f7001d12a5f // indirect
	github.com/dogenzaka/tsv v0.0.0-20150215104501-8e02e611b1fb // indirect
	github.com/go-co-op/gocron v1.23.0 // indirect
	github.com/go-openapi/jsonpointer v0.19.6 // indirect
	github.com/go-openapi/jsonreference v0.20.2 // indirect
	github.com/go-openapi/spec v0.20.9 // indirect
	github.com/go-openapi/swag v0.22.3 // indirect
	github.com/go-playground/locales v0.14.1 // indirect
	github.com/go-playground/universal-translator v0.18.1 // indirect
	github.com/gocarina/gocsv v0.0.0-20230406101422-6445c2b15027 // indirect
	github.com/goccy/go-json v0.9.7 // indirect
	github.com/golang-jwt/jwt/v4 v4.5.0 // indirect
	github.com/golang-jwt/jwt/v5 v5.0.0 // indirect
	github.com/golang-queue/queue v0.1.3 // indirect
	github.com/jackc/chunkreader/v2 v2.0.1 // indirect
	github.com/jackc/pgconn v1.14.0 // indirect
	github.com/jackc/pgio v1.0.0 // indirect
	github.com/jackc/pgpassfile v1.0.0 // indirect
	github.com/jackc/pgproto3/v2 v2.3.2 // indirect
	github.com/jackc/pgservicefile v0.0.0-20221227161230-091c0ba34f0a // indirect
	github.com/jackc/pgtype v1.14.0 // indirect
	github.com/josharian/intern v1.0.0 // indirect
	github.com/leodido/go-urn v1.2.3 // indirect
	github.com/mailru/easyjson v0.7.7 // indirect
	github.com/robfig/cron v1.2.0 // indirect
	github.com/robfig/cron/v3 v3.0.1 // indirect
	github.com/russross/blackfriday/v2 v2.1.0 // indirect
	github.com/shurcooL/sanitized_anchor_name v1.0.0 // indirect
	github.com/streadway/amqp v1.0.0 // indirect
	github.com/swaggo/files v0.0.0-20210815190702-a29dd2bc99b2 // indirect
	github.com/swaggo/swag v1.16.1 // indirect
	github.com/urfave/cli/v2 v2.25.3 // indirect
	github.com/wagslane/go-rabbitmq v0.12.3 // indirect
	github.com/xrash/smetrics v0.0.0-20201216005158-039620a65673 // indirect
	golang.org/x/net v0.9.0 // indirect
	golang.org/x/tools v0.8.0 // indirect
	gopkg.in/yaml.v2 v2.4.0 // indirect
	gopkg.in/yaml.v3 v3.0.1 // indirect
	sigs.k8s.io/yaml v1.3.0 // indirect
)

require (
	github.com/andybalholm/brotli v1.0.5 // indirect
	github.com/arsmn/fiber-swagger/v2 v2.31.1
	github.com/go-playground/validator/v10 v10.13.0
	github.com/go-redis/redis/v8 v8.11.5
	github.com/go-sql-driver/mysql v1.7.1
	github.com/gofiber/jwt/v2 v2.2.7
	github.com/golang/snappy v0.0.3 // indirect
	github.com/google/logger v1.1.1
	github.com/google/uuid v1.3.0 // indirect
	github.com/jackc/pgx/v4 v4.18.1
	github.com/jmoiron/sqlx v1.3.5
	github.com/joho/godotenv v1.5.1
	github.com/klauspost/compress v1.16.3 // indirect
	github.com/mattn/go-colorable v0.1.13 // indirect
	github.com/mattn/go-isatty v0.0.18 // indirect
	github.com/mattn/go-runewidth v0.0.14 // indirect
	github.com/montanaflynn/stats v0.0.0-20171201202039-1bf9dbcd8cbe // indirect
	github.com/philhofer/fwd v1.1.2 // indirect
	github.com/rabbitmq/amqp091-go v1.8.1
	github.com/rivo/uniseg v0.2.0 // indirect
	github.com/rs/zerolog v1.29.1
	github.com/savsgio/dictpool v0.0.0-20221023140959-7bf2e61cea94 // indirect
	github.com/savsgio/gotils v0.0.0-20230208104028-c358bd845dee // indirect
	github.com/sirupsen/logrus v1.9.0
	github.com/tinylib/msgp v1.1.8 // indirect
	github.com/valyala/bytebufferpool v1.0.0 // indirect
	github.com/valyala/fasthttp v1.45.0 // indirect
	github.com/valyala/tcplisten v1.0.0 // indirect
	github.com/xdg-go/pbkdf2 v1.0.0 // indirect
	github.com/xdg-go/scram v1.1.1 // indirect
	github.com/xdg-go/stringprep v1.0.3 // indirect
	github.com/youmark/pkcs8 v0.0.0-20181117223130-1be2e3e5546d // indirect
	golang.org/x/crypto v0.8.0 // indirect
	golang.org/x/sync v0.1.0 // indirect
	golang.org/x/sys v0.7.0 // indirect
	golang.org/x/text v0.9.0 // indirect
)
